Getting Started • rrricanes
…
Wind and Gust are current one-minute sustained wind speeds in knots (kts). You can use the function knots_to_mph to convert this. All wind speed values are in knots.

Pressure is the lowest atmospheric pressure of the cyclone either measured or estimated. It’s value is in millibars but you can use mb_to_in() to convert to inches.

FwdDir and FwdSpeed show the compass direction of the forward movement of the cyclone. NA values indicate the storm is stationary or drifting. FwdSpeed is measured in knots.

In some cases, where hurricanes have an identifiable Eye, it’s diameter in nautical miles will also be listed.

Lastly, the Seas variables will exist for a storm of at least tropical storm-strength. This is the distance from the center of circulation that 12ft seas can be found in each quadrant. The measurement is in nautical miles.

Helper function tidy_adv will subset this data to a narrow dataframe.

tidy_adv(df.al_18_2012_fstadv)

## # A tibble: 31 × 18
##    Key     Adv Date                Status Name    Lat   Lon  Wind  Gust Pressure
##    <chr> <dbl> <dttm>              <chr>  <chr> <dbl> <dbl> <dbl> <dbl>    <dbl>
##  1 AL18…     1 2012-10-22 15:00:00 Tropi… Eigh…  13.5 -78      25    35     1003
##  2 AL18…     2 2012-10-22 21:00:00 Tropi… Sandy  12.5 -78.5    35    45      999
##  3 AL18…     3 2012-10-23 03:00:00 Tropi… Sandy  12.7 -78.6    40    50      998
##  4 AL18…     4 2012-10-23 09:00:00 Tropi… Sandy  13.3 -78.6    40    50      998
##  5 AL18…     5 2012-10-23 15:00:00 Tropi… Sandy  13.8 -77.8    45    55      993
##  6 AL18…     6 2012-10-23 21:00:00 Tropi… Sandy  14.3 -77.6    45    55      993
##  7 AL18…     7 2012-10-24 03:00:00 Tropi… Sandy  15.2 -77.2    50    60      989
##  8 AL18…     8 2012-10-24 09:00:00 Tropi… Sandy  16.3 -77      60    75      986
##  9 AL18…     9 2012-10-24 15:00:00 Hurri… Sandy  17.1 -76.7    70    85      973
## 10 AL18…    10 2012-10-24 21:00:00 Hurri… Sandy  18.3 -76.6    70    85      970
## # … with 21 more rows, and 8 more variables: PosAcc <dbl>, FwdDir <dbl>,
## #   FwdSpeed <dbl>, Eye <dbl>, SeasNE <dbl>, SeasSE <dbl>, SeasSW <dbl>,
## #   SeasNW <dbl>
…
A helper function, tidy_wr will reorganize this data into a narrow format and tidied up. Complete wind radius values that are NA are removed for efficiency.

tidy_wr(df.al_18_2012_fstadv)

## # A tibble: 77 × 8
##    Key        Adv Date                WindField    NE    SE    SW    NW
##    <chr>    <dbl> <dttm>                  <dbl> <dbl> <dbl> <dbl> <dbl>
##  1 AL182012     2 2012-10-22 21:00:00        34    50    60     0     0
##  2 AL182012     3 2012-10-23 03:00:00        34    50    60     0     0
##  3 AL182012     4 2012-10-23 09:00:00        34    70    80     0     0
##  4 AL182012     5 2012-10-23 15:00:00        34    70    80     0     0
##  5 AL182012     6 2012-10-23 21:00:00        34    80    90     0     0
##  6 AL182012     7 2012-10-24 03:00:00        34    90   120     0    30
##  7 AL182012     7 2012-10-24 03:00:00        50     0    80     0     0
##  8 AL182012     8 2012-10-24 09:00:00        34   100   120    45    45
##  9 AL182012     8 2012-10-24 09:00:00        50    50    70     0     0
## 10 AL182012     9 2012-10-24 15:00:00        34   110   120    60    60
## # … with 67 more rows

Forecast

Most Forecast/Advisory products will have forecast data associated with it unless the storm has dissipated or is no longer tropical. There may be up to seven forecast positions. These positions are issued by 12-hour intervals through 48 hours where they are then at 24-hour intervals; 12, 24, 36, 48, 72, 96 and 120 hours.

str(df.al_18_2012_fstadv %>% select(Hr12FcstDate:Hr12Gust))

Notice each variable begins with the prefix “Hrn” where n is the forecast period as noted above. Only Date, Lat, Lon, Wind, Gust and wind radius (will discuss shortly) are given for forecast periods.

Use tidy_fcst to tidy forecast data.

tidy_fcst(df.al_18_2012_fstadv)

## # A tibble: 216 × 8
##    Key       Adv Date                FcstDate              Lat   Lon  Wind  Gust
##    <chr>   <dbl> <dttm>              <dttm>              <dbl> <dbl> <dbl> <dbl>
##  1 AL1820…     1 2012-10-22 15:00:00 2012-10-23 00:00:00  13.7 -78.3    35    45
##  2 AL1820…     1 2012-10-22 15:00:00 2012-10-23 12:00:00  14.3 -78.1    45    55
##  3 AL1820…     1 2012-10-22 15:00:00 2012-10-24 00:00:00  15.7 -77.6    55    65
##  4 AL1820…     1 2012-10-22 15:00:00 2012-10-24 12:00:00  17.4 -77      60    75
##  5 AL1820…     1 2012-10-22 15:00:00 2012-10-25 12:00:00  20.5 -76      55    65
##  6 AL1820…     1 2012-10-22 15:00:00 2012-10-26 12:00:00  24.5 -74.5    55    65
##  7 AL1820…     1 2012-10-22 15:00:00 2012-10-27 12:00:00  27   -73      50    60
##  8 AL1820…     2 2012-10-22 21:00:00 2012-10-23 06:00:00  13.6 -78.5    35    45
##  9 AL1820…     2 2012-10-22 21:00:00 2012-10-23 18:00:00  14.9 -78.3    45    55
## 10 AL1820…     2 2012-10-22 21:00:00 2012-10-24 06:00:00  16.4 -77.8    55    65
## # … with 206 more rows
…
Therefore, while officially the forecast periods are 12, 24, 36, … hours, in reality they are 9, 21, 33, … hours from the issuance time of the product.

Forecast Wind Radius

Some forecast positions may also contain wind radius information (only up to 72 hours).

str(df.al_18_2012_fstadv %>% select(Hr12NE64:Hr12NW34))

Again, these variables are prepended with the prefix prefix “Hrn” where n notes the forecast period.

tidy_fcst_wr will tidy this subset of data.

tidy_fcst_wr(df.al_18_2012_fstadv)

## # A tibble: 337 × 9
##    Key        Adv Date                FcstDate            WindField    NE    SE
##    <chr>    <dbl> <dttm>              <dttm>                  <dbl> <dbl> <dbl>
##  1 AL182012     1 2012-10-22 15:00:00 2012-10-23 00:00:00        34    40    30
##  2 AL182012     1 2012-10-22 15:00:00 2012-10-23 12:00:00        34    50    60
##  3 AL182012     1 2012-10-22 15:00:00 2012-10-24 00:00:00        34    80    80
##  4 AL182012     1 2012-10-22 15:00:00 2012-10-24 00:00:00        50    30    40
##  5 AL182012     1 2012-10-22 15:00:00 2012-10-24 12:00:00        34    90    90
##  6 AL182012     1 2012-10-22 15:00:00 2012-10-24 12:00:00        50    40    40
##  7 AL182012     1 2012-10-22 15:00:00 2012-10-25 12:00:00        34   200   180
##  8 AL182012     1 2012-10-22 15:00:00 2012-10-25 12:00:00        50    50    40
##  9 AL182012     2 2012-10-22 21:00:00 2012-10-23 06:00:00        34    50    60
## 10 AL182012     2 2012-10-22 21:00:00 2012-10-23 18:00:00        34    50    60
## # … with 327 more rows, and 2 more variables: SW <dbl>, NW <dbl>
…
